[
        {
            "id": 6,
            "visitor": "f8c8fac0-1d8c-11eb-b9ad-c5971ae1dfb6",
            "agent": 1,
            "joined_by": "f8c8fac0-1d8c-11eb-b9ad-c5971ae1dfb6",
            "left_at": "2020-11-03T04:36:04.486Z",
            "left_by": "f8c8fac0-1d8c-11eb-b9ad-c5971ae1dfb6",
            "visitor_name": "bhau",
            "visitor_email": null,
            "phone": null,
            "note": [],
            "last_message": 8138,
            "location": "Dehradun, UT, India, Asia",
            "active": false,
            "close": false,
            "priority": false,
            "block": false,
            "created_at": "2020-11-03T04:33:40.164Z",
            "updated_at": "2020-11-21T06:02:07.803Z",
            "lastMessage": {
                "id": 8138,
                "message": "..",
                "from": "1",
                "to": "f8c8fac0-1d8c-11eb-b9ad-c5971ae1dfb6",
                "type": "text",
                "deleted": false,
                "created_at": "2020-11-21T06:02:07.765Z",
                "updated_at": "2020-11-21T06:02:07.765Z",
                "from_user_id": 1,
                "history_id": 6,
                "message_seen": false,
                "url": null,
                "user_agent": null,
                "messageFrom": {
                    "username": "soshiv"
                }
            },
            "admin": {
                "username": "soshiv"
            },
            "tags": [
                {
                    "id": "3",
                    "created_at": "2020-11-07T12:00:59.587Z",
                    "tag": {
                        "id": 1,
                        "name": "test"
                    }
                },
                {
                    "id": "4",
                    "created_at": "2020-11-07T12:10:20.908Z",
                    "tag": {
                        "id": 2,
                        "name": "two"
                    }
                },
                {
                    "id": "5",
                    "created_at": "2020-11-07T12:18:13.470Z",
                    "tag": {
                        "id": 6,
                        "name": "goa"
                    }
                },
                {
                    "id": "6",
                    "created_at": "2020-11-07T12:32:37.976Z",
                    "tag": {
                        "id": 7,
                        "name": "toyota"
                    }
                },
                {
                    "id": "7",
                    "created_at": "2020-11-07T12:38:44.928Z",
                    "tag": {
                        "id": 8,
                        "name": "dell"
                    }
                },
                {
                    "id": "8",
                    "created_at": "2020-11-07T12:40:02.212Z",
                    "tag": {
                        "id": 4,
                        "name": "three"
                    }
                },
                {
                    "id": "9",
                    "created_at": "2020-11-07T12:41:43.613Z",
                    "tag": {
                        "id": 18,
                        "name": "tamato"
                    }
                },
                {
                    "id": "10",
                    "created_at": "2020-11-07T12:43:27.653Z",
                    "tag": {
                        "id": 52,
                        "name": "independence"
                    }
                },
                {
                    "id": "12",
                    "created_at": "2020-11-07T13:00:48.729Z",
                    "tag": {
                        "id": 3,
                        "name": "one"
                    }
                },
                {
                    "id": "13",
                    "created_at": "2020-11-09T05:10:23.507Z",
                    "tag": {
                        "id": 33,
                        "name": "asdfasdfta"
                    }
                },
                {
                    "id": "14",
                    "created_at": "2020-11-09T05:15:09.195Z",
                    "tag": {
                        "id": 23,
                        "name": "green"
                    }
                },
                {
                    "id": "15",
                    "created_at": "2020-11-09T05:26:40.225Z",
                    "tag": {
                        "id": 13,
                        "name": "washer"
                    }
                },
                {
                    "id": "16",
                    "created_at": "2020-11-09T05:35:02.828Z",
                    "tag": {
                        "id": 5,
                        "name": "five"
                    }
                },
                {
                    "id": "17",
                    "created_at": "2020-11-09T05:38:39.400Z",
                    "tag": {
                        "id": 31,
                        "name": "lanka"
                    }
                },
                {
                    "id": "18",
                    "created_at": "2020-11-09T05:40:23.495Z",
                    "tag": {
                        "id": 30,
                        "name": "bhala"
                    }
                },
                {
                    "id": "20",
                    "created_at": "2020-11-09T05:49:00.059Z",
                    "tag": {
                        "id": 10,
                        "name": "river"
                    }
                },
                {
                    "id": "21",
                    "created_at": "2020-11-09T05:52:29.524Z",
                    "tag": {
                        "id": 26,
                        "name": "dog"
                    }
                },
                {
                    "id": "22",
                    "created_at": "2020-11-09T05:54:11.810Z",
                    "tag": {
                        "id": 49,
                        "name": "dellaptop"
                    }
                },
                {
                    "id": "23",
                    "created_at": "2020-11-09T05:57:24.780Z",
                    "tag": {
                        "id": 21,
                        "name": "bhola"
                    }
                }
            ],
            "message_count": 202,
            "unseen_message_count": 0,
            "messages": {
                "messages": [
                    {
                        "id": 8003,
                        "message": "sdf",
                        "from": "1",
                        "to": "f8c8fac0-1d8c-11eb-b9ad-c5971ae1dfb6",
                        "type": "text",
                        "deleted": false,
                        "created_at": "2020-11-20T07:58:14.428Z",
                        "updated_at": "2020-11-20T07:58:14.428Z",
                        "from_user_id": 1,
                        "history_id": 6,
                        "message_seen": false,
                        "url": null,
                        "user_agent": null,
                        "messageFrom": {
                            "username": "soshiv"
                        }
                    },
                    {
                        "id": 8070,
                        "message": "http://144.217.59.249:3333/i/o/1605932977248/29eca600-2bb2-11eb-84fa-63f9c9a96725/a.mp4",
                        "from": "1",
                        "to": "f8c8fac0-1d8c-11eb-b9ad-c5971ae1dfb6",
                        "type": "file",
                        "deleted": false,
                        "created_at": "2020-11-21T04:29:39.714Z",
                        "updated_at": "2020-11-21T04:29:39.714Z",
                        "from_user_id": 1,
                        "history_id": 6,
                        "message_seen": false,
                        "url": null,
                        "user_agent": null,
                        "messageFrom": {
                            "username": "soshiv"
                        }
                    },
                    {
                        "id": 8071,
                        "message": "http://144.217.59.249:3333/i/o/1605933147161/8f335090-2bb2-11eb-84fa-63f9c9a96725/a.mp4",
                        "from": "1",
                        "to": "f8c8fac0-1d8c-11eb-b9ad-c5971ae1dfb6",
                        "type": "file",
                        "deleted": false,
                        "created_at": "2020-11-21T04:32:29.483Z",
                        "updated_at": "2020-11-21T04:32:29.483Z",
                        "from_user_id": 1,
                        "history_id": 6,
                        "message_seen": false,
                        "url": null,
                        "user_agent": null,
                        "messageFrom": {
                            "username": "soshiv"
                        }
                    },
                    {
                        "id": 8072,
                        "message": "http://144.217.59.249:3333/i/o/1605933281181/df1524d0-2bb2-11eb-84fa-63f9c9a96725/tg.9.png",
                        "from": "1",
                        "to": "f8c8fac0-1d8c-11eb-b9ad-c5971ae1dfb6",
                        "type": "image",
                        "deleted": false,
                        "created_at": "2020-11-21T04:34:42.472Z",
                        "updated_at": "2020-11-21T04:34:42.472Z",
                        "from_user_id": 1,
                        "history_id": 6,
                        "message_seen": false,
                        "url": null,
                        "user_agent": null,
                        "messageFrom": {
                            "username": "soshiv"
                        }
                    },
                    {
                        "id": 8073,
                        "message": "http://144.217.59.249:3333/i/o/1605933293749/e692de50-2bb2-11eb-84fa-63f9c9a96725/tg.9.png",
                        "from": "1",
                        "to": "f8c8fac0-1d8c-11eb-b9ad-c5971ae1dfb6",
                        "type": "image",
                        "deleted": false,
                        "created_at": "2020-11-21T04:34:55.039Z",
                        "updated_at": "2020-11-21T04:34:55.039Z",
                        "from_user_id": 1,
                        "history_id": 6,
                        "message_seen": false,
                        "url": null,
                        "user_agent": null,
                        "messageFrom": {
                            "username": "soshiv"
                        }
                    },
                    {
                        "id": 8074,
                        "message": "http://144.217.59.249:3333/i/o/1605933304896/ed37c400-2bb2-11eb-84fa-63f9c9a96725/a.mp4",
                        "from": "1",
                        "to": "f8c8fac0-1d8c-11eb-b9ad-c5971ae1dfb6",
                        "type": "file",
                        "deleted": false,
                        "created_at": "2020-11-21T04:35:07.429Z",
                        "updated_at": "2020-11-21T04:35:07.429Z",
                        "from_user_id": 1,
                        "history_id": 6,
                        "message_seen": false,
                        "url": null,
                        "user_agent": null,
                        "messageFrom": {
                            "username": "soshiv"
                        }
                    },
                    {
                        "id": 8109,
                        "message": "test",
                        "from": "1",
                        "to": "f8c8fac0-1d8c-11eb-b9ad-c5971ae1dfb6",
                        "type": "text",
                        "deleted": false,
                        "created_at": "2020-11-21T05:37:53.053Z",
                        "updated_at": "2020-11-21T05:37:53.053Z",
                        "from_user_id": 1,
                        "history_id": 6,
                        "message_seen": false,
                        "url": null,
                        "user_agent": null,
                        "messageFrom": {
                            "username": "soshiv"
                        }
                    },
                    {
                        "id": 8112,
                        "message": "test",
                        "from": "1",
                        "to": "f8c8fac0-1d8c-11eb-b9ad-c5971ae1dfb6",
                        "type": "text",
                        "deleted": false,
                        "created_at": "2020-11-21T05:39:55.326Z",
                        "updated_at": "2020-11-21T05:39:55.326Z",
                        "from_user_id": 1,
                        "history_id": 6,
                        "message_seen": false,
                        "url": null,
                        "user_agent": null,
                        "messageFrom": {
                            "username": "soshiv"
                        }
                    },
                    {
                        "id": 8113,
                        "message": "tata",
                        "from": "1",
                        "to": "f8c8fac0-1d8c-11eb-b9ad-c5971ae1dfb6",
                        "type": "text",
                        "deleted": false,
                        "created_at": "2020-11-21T05:44:04.122Z",
                        "updated_at": "2020-11-21T05:44:04.122Z",
                        "from_user_id": 1,
                        "history_id": 6,
                        "message_seen": false,
                        "url": null,
                        "user_agent": null,
                        "messageFrom": {
                            "username": "soshiv"
                        }
                    },
                    {
                        "id": 8114,
                        "message": "test",
                        "from": "1",
                        "to": "f8c8fac0-1d8c-11eb-b9ad-c5971ae1dfb6",
                        "type": "text",
                        "deleted": false,
                        "created_at": "2020-11-21T05:44:16.448Z",
                        "updated_at": "2020-11-21T05:44:16.448Z",
                        "from_user_id": 1,
                        "history_id": 6,
                        "message_seen": false,
                        "url": null,
                        "user_agent": null,
                        "messageFrom": {
                            "username": "soshiv"
                        }
                    },
                    {
                        "id": 8115,
                        "message": "trt",
                        "from": "1",
                        "to": "f8c8fac0-1d8c-11eb-b9ad-c5971ae1dfb6",
                        "type": "text",
                        "deleted": false,
                        "created_at": "2020-11-21T05:44:24.487Z",
                        "updated_at": "2020-11-21T05:44:24.487Z",
                        "from_user_id": 1,
                        "history_id": 6,
                        "message_seen": false,
                        "url": null,
                        "user_agent": null,
                        "messageFrom": {
                            "username": "soshiv"
                        }
                    },
                    {
                        "id": 8121,
                        "message": "234",
                        "from": "1",
                        "to": "f8c8fac0-1d8c-11eb-b9ad-c5971ae1dfb6",
                        "type": "text",
                        "deleted": false,
                        "created_at": "2020-11-21T05:46:36.362Z",
                        "updated_at": "2020-11-21T05:46:36.362Z",
                        "from_user_id": 1,
                        "history_id": 6,
                        "message_seen": false,
                        "url": null,
                        "user_agent": null,
                        "messageFrom": {
                            "username": "soshiv"
                        }
                    },
                    {
                        "id": 8122,
                        "message": "564",
                        "from": "1",
                        "to": "f8c8fac0-1d8c-11eb-b9ad-c5971ae1dfb6",
                        "type": "text",
                        "deleted": false,
                        "created_at": "2020-11-21T05:47:13.387Z",
                        "updated_at": "2020-11-21T05:47:13.387Z",
                        "from_user_id": 1,
                        "history_id": 6,
                        "message_seen": false,
                        "url": null,
                        "user_agent": null,
                        "messageFrom": {
                            "username": "soshiv"
                        }
                    },
                    {
                        "id": 8123,
                        "message": ".3.3.",
                        "from": "1",
                        "to": "f8c8fac0-1d8c-11eb-b9ad-c5971ae1dfb6",
                        "type": "text",
                        "deleted": false,
                        "created_at": "2020-11-21T05:47:20.178Z",
                        "updated_at": "2020-11-21T05:47:20.178Z",
                        "from_user_id": 1,
                        "history_id": 6,
                        "message_seen": false,
                        "url": null,
                        "user_agent": null,
                        "messageFrom": {
                            "username": "soshiv"
                        }
                    },
                    {
                        "id": 8133,
                        "message": "3",
                        "from": "1",
                        "to": "f8c8fac0-1d8c-11eb-b9ad-c5971ae1dfb6",
                        "type": "text",
                        "deleted": false,
                        "created_at": "2020-11-21T06:01:57.846Z",
                        "updated_at": "2020-11-21T06:01:57.846Z",
                        "from_user_id": 1,
                        "history_id": 6,
                        "message_seen": false,
                        "url": null,
                        "user_agent": null,
                        "messageFrom": {
                            "username": "soshiv"
                        }
                    },
                    {
                        "id": 8134,
                        "message": "5",
                        "from": "1",
                        "to": "f8c8fac0-1d8c-11eb-b9ad-c5971ae1dfb6",
                        "type": "text",
                        "deleted": false,
                        "created_at": "2020-11-21T06:02:00.458Z",
                        "updated_at": "2020-11-21T06:02:00.458Z",
                        "from_user_id": 1,
                        "history_id": 6,
                        "message_seen": false,
                        "url": null,
                        "user_agent": null,
                        "messageFrom": {
                            "username": "soshiv"
                        }
                    },
                    {
                        "id": 8135,
                        "message": "2",
                        "from": "1",
                        "to": "f8c8fac0-1d8c-11eb-b9ad-c5971ae1dfb6",
                        "type": "text",
                        "deleted": false,
                        "created_at": "2020-11-21T06:02:01.991Z",
                        "updated_at": "2020-11-21T06:02:01.991Z",
                        "from_user_id": 1,
                        "history_id": 6,
                        "message_seen": false,
                        "url": null,
                        "user_agent": null,
                        "messageFrom": {
                            "username": "soshiv"
                        }
                    },
                    {
                        "id": 8136,
                        "message": ".",
                        "from": "1",
                        "to": "f8c8fac0-1d8c-11eb-b9ad-c5971ae1dfb6",
                        "type": "text",
                        "deleted": false,
                        "created_at": "2020-11-21T06:02:03.424Z",
                        "updated_at": "2020-11-21T06:02:03.424Z",
                        "from_user_id": 1,
                        "history_id": 6,
                        "message_seen": false,
                        "url": null,
                        "user_agent": null,
                        "messageFrom": {
                            "username": "soshiv"
                        }
                    },
                    {
                        "id": 8137,
                        "message": "9",
                        "from": "1",
                        "to": "f8c8fac0-1d8c-11eb-b9ad-c5971ae1dfb6",
                        "type": "text",
                        "deleted": false,
                        "created_at": "2020-11-21T06:02:05.374Z",
                        "updated_at": "2020-11-21T06:02:05.374Z",
                        "from_user_id": 1,
                        "history_id": 6,
                        "message_seen": false,
                        "url": null,
                        "user_agent": null,
                        "messageFrom": {
                            "username": "soshiv"
                        }
                    },
                    {
                        "id": 8138,
                        "message": "..",
                        "from": "1",
                        "to": "f8c8fac0-1d8c-11eb-b9ad-c5971ae1dfb6",
                        "type": "text",
                        "deleted": false,
                        "created_at": "2020-11-21T06:02:07.765Z",
                        "updated_at": "2020-11-21T06:02:07.765Z",
                        "from_user_id": 1,
                        "history_id": 6,
                        "message_seen": false,
                        "url": null,
                        "user_agent": null,
                        "messageFrom": {
                            "username": "soshiv"
                        }
                    }
                ],
                "count": 202,
                "next": "http://144.217.59.249:3333/api/chat/conversations/f8c8fac0-1d8c-11eb-b9ad-c5971ae1dfb6?offset=20&limit=20",
                "previous": null,
                "offset": 20,
                "limit": 20
            }
        },
        {
            "id": 2,
            "visitor": "59e35a20-11ef-11eb-9b37-975323bf8c4f",
            "agent": 1,
            "joined_by": "59e35a20-11ef-11eb-9b37-975323bf8c4f",
            "left_at": "2020-10-19T11:29:07.101Z",
            "left_by": "59e35a20-11ef-11eb-9b37-975323bf8c4f",
            "visitor_name": "modi",
            "visitor_email": "a@a.aa",
            "phone": null,
            "note": [
                "oneea",
                "oneeaasdf",
                "oneasdf",
                "haaeae121",
                "hkgkhgkh",
                "yghjgkh"
            ],
            "last_message": 7962,
            "location": "Dehradun, UT, India, Asia",
            "active": false,
            "close": false,
            "priority": false,
            "block": false,
            "created_at": "2020-10-19T10:40:15.681Z",
            "updated_at": "2020-11-20T05:17:22.433Z",
            "lastMessage": {
                "id": 7962,
                "message": "132",
                "from": "1",
                "to": "59e35a20-11ef-11eb-9b37-975323bf8c4f",
                "type": "text",
                "deleted": true,
                "created_at": "2020-11-20T05:17:22.378Z",
                "updated_at": "2020-11-20T05:17:27.335Z",
                "from_user_id": 1,
                "history_id": 2,
                "message_seen": false,
                "url": null,
                "user_agent": null,
                "messageFrom": {
                    "username": "soshiv"
                }
            },
            "admin": {
                "username": "soshiv"
            },
            "tags": [
                {
                    "id": "11",
                    "created_at": "2020-11-07T12:49:28.078Z",
                    "tag": {
                        "id": 7,
                        "name": "toyota"
                    }
                },
                {
                    "id": "25",
                    "created_at": "2020-11-09T06:19:01.670Z",
                    "tag": {
                        "id": 56,
                        "name": "hi"
                    }
                },
                {
                    "id": "28",
                    "created_at": "2020-11-09T06:25:14.736Z",
                    "tag": {
                        "id": 8,
                        "name": "dell"
                    }
                },
                {
                    "id": "29",
                    "created_at": "2020-11-09T06:25:22.893Z",
                    "tag": {
                        "id": 3,
                        "name": "one"
                    }
                },
                {
                    "id": "30",
                    "created_at": "2020-11-09T06:31:38.204Z",
                    "tag": {
                        "id": 57,
                        "name": "क्या हाल हैं "
                    }
                },
                {
                    "id": "31",
                    "created_at": "2020-11-09T06:32:04.255Z",
                    "tag": {
                        "id": 58,
                        "name": "हिंदुस्तान ज़िन्दाबाद "
                    }
                }
            ],
            "message_count": 151,
            "unseen_message_count": 0
        },
        {
            "id": 5,
            "visitor": "77627a40-11fe-11eb-9b37-975323bf8c4f",
            "agent": 1,
            "joined_by": "77627a40-11fe-11eb-9b37-975323bf8c4f",
            "left_at": "2020-10-19T11:53:53.116Z",
            "left_by": "77627a40-11fe-11eb-9b37-975323bf8c4f",
            "visitor_name": "lala",
            "visitor_email": "a@a.aa",
            "phone": null,
            "note": [
                "testo",
                "ujoijiljl",
                "asdfsad",
                "taghf",
                "adfsdaf",
                "lopikju"
            ],
            "last_message": 7569,
            "location": "Dehradun, UT, India, Asia",
            "active": false,
            "close": true,
            "priority": false,
            "block": false,
            "created_at": "2020-10-19T11:30:30.639Z",
            "updated_at": "2020-11-09T04:58:26.753Z",
            "lastMessage": {
                "id": 7569,
                "message": "456",
                "from": "1",
                "to": "77627a40-11fe-11eb-9b37-975323bf8c4f",
                "type": "text",
                "deleted": false,
                "created_at": "2020-11-09T04:58:26.718Z",
                "updated_at": "2020-11-09T04:58:26.718Z",
                "from_user_id": 1,
                "history_id": 5,
                "message_seen": false,
                "url": null,
                "user_agent": null,
                "messageFrom": {
                    "username": "soshiv"
                }
            },
            "admin": {
                "username": "soshiv"
            },
            "tags": [],
            "message_count": 220,
            "unseen_message_count": 0
        },
        {
            "id": 1,
            "visitor": "a0d07700-11c8-11eb-92c0-8dae402c20e1",
            "agent": 1,
            "joined_by": "a0d07700-11c8-11eb-92c0-8dae402c20e1",
            "left_at": "2020-10-19T05:06:22.180Z",
            "left_by": "a0d07700-11c8-11eb-92c0-8dae402c20e1",
            "visitor_name": "One",
            "visitor_email": "a@a.aa",
            "phone": null,
            "note": [
                "asdfasdf",
                "uyuihljbjl",
                "uytgiguk"
            ],
            "last_message": 6730,
            "location": "Dehradun, UT, India, Asia",
            "active": false,
            "close": true,
            "priority": false,
            "block": false,
            "created_at": "2020-10-19T05:05:15.095Z",
            "updated_at": "2020-11-09T10:58:05.484Z",
            "lastMessage": {
                "id": 6730,
                "message": "Hi",
                "from": "a0d07700-11c8-11eb-92c0-8dae402c20e1",
                "to": "",
                "type": "text",
                "deleted": false,
                "created_at": "2020-10-19T05:05:15.148Z",
                "updated_at": "2020-11-09T10:58:05.455Z",
                "from_user_id": null,
                "history_id": 1,
                "message_seen": true,
                "url": null,
                "user_agent": null,
                "messageFrom": null
            },
            "admin": {
                "username": "soshiv"
            },
            "tags": [],
            "message_count": 47,
            "unseen_message_count": 0
        }
    ],
